{
    "type": "service_account",
    "project_id": "relle-upgrade",
    "private_key_id": "84465419d69676ff79f6ca8b55210de4a230a5ef",
    "private_key": "-----BEGIN PRIVATE KEY-----\nMIIEvAIBADANBgkqhkiG9w0BAQEFAASCBKYwggSiAgEAAoIBAQCrX8pOfRDdu4p5\nPcmZCH0JWikwd3liqJakooFNfjQ2pLKhi+iMVVNTlotgYWvt3xvlc3nXsHn4ACYW\n/FmV6K9ggVkM3e/Qvf8f7RjGRL5s4l37SsPzuxRwAHngyXtMWDmeGfv4h8e5UwEa\nDFRcWtG9YavVdCPEc+ohaNUe+POe9HvYZHqBKLNKAhlUdpTAjnzGq2h/knjOoLHF\nm2upsSsPo5xko3PNFEiJgvSLAIqBfWhb56j6CDsaGSuOwJjhEa8HfTm0kVbcxhmY\nyyPTunghVZpC2jvuGYRmWTiBjeDZ9lQ6vKCrME7+fIbua24LVR5HyMrMe1k+pA6u\na5eECiwBAgMBAAECggEACmBXy2IQ8v4Dm8TxF4wfJwFvqES5o669xUzmG5syPeNB\nwhyKqXGSpKdjO8QWUP4u7hkMdfH0Zp7ar45avcQLl2Ipkkj/V+IjKAuW8g1QQt8/\nbcNYg0HO8lujBYhph+U5IuCjpCgTgJ39HXbE5l0k4SzAZuGb902F7f0vF0ufU57U\nWR2ccxL7hl+rpT7OW7QuF3zfFzQdByYx4JPTidCfa5anltMcP9bdY1uNPq83+HVI\npcIZ39+EhFouCrrKi8CpzgA/kYkWi3dQqpWK/dWgSUBFJEr5VyLMTa8wdj/FmKn/\nygM7QAmLJUdpTLiZ0TD+hqwTxLBxqGtHTF7HPcOM+QKBgQDcswphEKN5d3jk/OHf\n0QLJ3QmDqYN7XoJQyLGA9mgTytzqiNmqcvzfn9dow7R57reV1fj5tTk6VFlRFQkx\nDF2uQ0aJARlN7VIT1nMSmlGmuCZi2nPL2mPlsjPfytkE3lhStFH5PGl4iss0BcsT\n+k1cdRF5i/YGDudFs2sQ4/6ZWQKBgQDGyQjvui8LdlELMAM+uJflrKUO3s2dPRLa\nc07j2DvPXLS/ldNxV4DmXsqQB32yxkl28VURaZrPZTMO6DUkVIY5/vl4TjQzgtxf\nokA5dOqGHV5iFoAGcba0V1vkT19AQg95IBiPHBU8FtZLHj53IJ1TvDXLBXXoappD\nmqdDcGgq6QKBgGRE169Xzt2twPhQSBLWs+yghuURi9HuE0i+lZ6g1JJBdXL87993\n1JmI1mYbnBBVu4TQrQhOJIzyq42iAAYPtzQoDpDKNgPokYS/xpIqGHSlb5Mz6q4w\nL3i5KMZBM635kqkokaGpp8WDUWT2SNhvvNwHuAO/6evAs6RAKqGG5DIpAoGAJuBQ\nOBoQc0xrYyW7rLuLMWbHTRYz3imAk2pzpkm2wMIfs0xI8uSrF+K3+N0OLzVqTrG5\n8lLV7POcvbCaHAXPzm3YOjgJK33PPYDM0K/V4e7Cc6p01U3N7o0bMpZ3SWjh/81Q\nIETcvki1FjHPA5tESYkIeDEUMyUOEGShi6XjKWkCgYB+fooBQwIHXMV0alqSlzoh\nNkTtxMmzqKh4OngkEBRGWz0OaoST8ao4enug5d9TgJufqrIdKzmLyJccBeJWlYjc\n9nH+vCjbTCuGC79H2mU+DTkUl39p57MOXFx7N2TEtvMpoB6hLbvcqwWThTmh3uuD\nt8ei5O6MQLJFktTZk2ebhw==\n-----END PRIVATE KEY-----\n",
    "client_email": "relle-upgrade@relle-upgrade.iam.gserviceaccount.com",
    "client_id": "114694337762764536519",
    "auth_uri": "https://accounts.google.com/o/oauth2/auth",
    "token_uri": "https://accounts.google.com/o/oauth2/token",
    "auth_provider_x509_cert_url": "https://www.googleapis.com/oauth2/v1/certs",
    "client_x509_cert_url": "https://www.googleapis.com/robot/v1/metadata/x509/relle-upgrade%40relle-upgrade.iam.gserviceaccount.com"
  }
  